[
  {
    "id": "builtin_single-choice-9K0OnT",
    "formData": {
      "text$ru": "выбери кнопку",
      "choices$ru": [
        {
          "title": "красная кнопка",
          "value": "red_button"
        },
        {
          "title": "синяя кнопка",
          "value": "blue_button"
        }
      ],
      "typing$ru": true
    },
    "createdBy": "admin",
    "createdOn": "2019-08-27T19:10:59.748Z",
    "modifiedOn": "2019-08-27T20:52:05.927Z"
  },
  {
    "id": "builtin_single-choice-XoNKAC",
    "formData": {
      "text$ru": "выбери пипку",
      "choices$ru": [
        {
          "title": "красная пипка",
          "value": "red_pipka"
        },
        {
          "title": "синяя пипка",
          "value": "blue_pipka"
        }
      ],
      "typing$ru": true
    },
    "createdBy": "admin",
    "createdOn": "2019-08-28T06:56:43.023Z",
    "modifiedOn": "2019-08-28T06:56:43.023Z"
  },
  {
    "id": "builtin_single-choice-qOfVeM",
    "formData": {
      "text$ru": "Выберите страну из списка",
      "choices$ru": [
        {
          "title": "🇹🇷 Турция",
          "value": "turkey"
        },
        {
          "title": "🇧🇬 Болгария",
          "value": "bulgary"
        },
        {
          "title": "🇪🇬 Египет",
          "value": "egypt"
        },
        {
          "title": "🇪🇸 Испания",
          "value": "spain"
        }
      ],
      "typing$ru": true
    },
    "createdBy": "admin",
    "createdOn": "2019-08-28T10:50:23.970Z",
    "modifiedOn": "2019-08-28T12:09:42.373Z"
  },
  {
    "id": "builtin_single-choice-Phf1Mj",
    "formData": {
      "text$ru": "Выберите город вылета",
      "choices$ru": [
        {
          "title": "Минск",
          "value": "minsk"
        },
        {
          "title": "Москва",
          "value": "moscow"
        },
        {
          "title": "Киев",
          "value": "kiev"
        },
        {
          "title": "Вильнюс",
          "value": "vilnus"
        },
        {
          "title": "Варшава",
          "value": "warsaw"
        }
      ],
      "typing$ru": true
    },
    "createdBy": "admin",
    "createdOn": "2019-08-28T13:16:45.676Z",
    "modifiedOn": "2019-09-03T10:54:25.501Z"
  }
]