{
  "version": "0.0.1",
  "catchAll": {},
  "startNode": "entry",
  "nodes": [
    {
      "id": "ca2f524439",
      "name": "entry",
      "onEnter": [],
      "onReceive": null,
      "next": []
    },
    {
      "id": "59c32d1b08",
      "name": "node-action-button",
      "next": [],
      "onEnter": [
        "say #!builtin_card-ySXCqZ"
      ],
      "onReceive": null,
      "type": "standard"
    },
    {
      "id": "197d4261b9",
      "name": "node-carousel",
      "next": [],
      "onEnter": [
        "say #!builtin_carousel-8dOm96"
      ],
      "onReceive": null,
      "type": "standard"
    }
  ]
}