{
  "sensitive": false,
  "fuzzy": true,
  "name": "iata",
  "type": "list",
  "occurences": [
    {
      "name": "HRG",
      "synonyms": [
        "Хургада"
      ]
    },
    {
      "name": "MSQ",
      "synonyms": [
        "Минск"
      ]
    },
    {
      "name": "MOW",
      "synonyms": [
        "Москва"
      ]
    }
  ],
  "pattern": ""
}